<?xml version="1.0" encoding="UTF-8" standalone="no"?>
<!-- Generator: Adobe Illustrator 19.0.0, SVG Export Plug-In . SVG Version: 6.00 Build 0)  -->

<svg
   xmlns:dc="http://purl.org/dc/elements/1.1/"
   xmlns:cc="http://creativecommons.org/ns#"
   xmlns:rdf="http://www.w3.org/1999/02/22-rdf-syntax-ns#"
   xmlns:svg="http://www.w3.org/2000/svg"
   xmlns="http://www.w3.org/2000/svg"
   xmlns:sodipodi="http://sodipodi.sourceforge.net/DTD/sodipodi-0.dtd"
   xmlns:inkscape="http://www.inkscape.org/namespaces/inkscape"
   version="1.1"
   id="Capa_1"
   x="0px"
   y="0px"
   viewBox="0 0 512 512"
   style="enable-background:new 0 0 512 512;"
   xml:space="preserve"
   inkscape:version="0.91 r13725"
   sodipodi:docname="medal-silver.svg"><metadata
     id="metadata85"><rdf:RDF><cc:Work
         rdf:about=""><dc:format>image/svg+xml</dc:format><dc:type
           rdf:resource="http://purl.org/dc/dcmitype/StillImage" /><dc:title></dc:title></cc:Work></rdf:RDF></metadata><defs
     id="defs83" /><sodipodi:namedview
     pagecolor="#ffffff"
     bordercolor="#666666"
     borderopacity="1"
     objecttolerance="10"
     gridtolerance="10"
     guidetolerance="10"
     inkscape:pageopacity="0"
     inkscape:pageshadow="2"
     inkscape:window-width="1080"
     inkscape:window-height="1896"
     id="namedview81"
     showgrid="false"
     inkscape:zoom="1.3037281"
     inkscape:cx="193.96805"
     inkscape:cy="119.7595"
     inkscape:window-x="0"
     inkscape:window-y="24"
     inkscape:window-maximized="1"
     inkscape:current-layer="Capa_1" /><path
     inkscape:connector-curvature="0"
     id="path90"
     d="m 476.42854,-0.03996 -114.63453,0 -165.58502,242.00669 114.63453,0 165.58502,-242.00669 z"
     style="fill:#bf392c" /><path
     inkscape:connector-curvature="0"
     id="path92"
     d="m 29.18028,-0.03996 114.63452,0 165.58367,242.00669 -114.63454,0 L 29.18028,-0.03996 Z"
     style="fill:#e66666;fill-opacity:1" /><circle
     style="fill:#999999"
     cx="256"
     cy="357.38"
     r="154.62"
     id="circle17" /><circle
     style="fill:#cccccc"
     cx="256"
     cy="357.38"
     r="116.38"
     id="circle19" /><g
     id="g21"><ellipse
       style="fill:#EC7887;"
       cx="186.9"
       cy="349.73"
       rx="25.495"
       ry="20.303"
       id="ellipse23" /><ellipse
       style="fill:#EC7887;"
       cx="325.1"
       cy="349.73"
       rx="25.495"
       ry="20.303"
       id="ellipse25" /></g><g
     id="g27"><path
       style="fill:#495059;"
       d="M201.762,336.98c-4.142,0-7.5-3.358-7.5-7.5v-9.003c0-4.142,3.358-7.5,7.5-7.5s7.5,3.358,7.5,7.5   v9.003C209.262,333.623,205.904,336.98,201.762,336.98z"
       id="path29" /><path
       style="fill:#495059;"
       d="M310.238,336.98c-4.142,0-7.5-3.358-7.5-7.5v-9.003c0-4.142,3.358-7.5,7.5-7.5s7.5,3.358,7.5,7.5   v9.003C317.738,333.623,314.38,336.98,310.238,336.98z"
       id="path31" /><path
       style="fill:#495059;"
       d="M256,343.894c-7.648,0-14.921-3.313-19.954-9.087c-2.721-3.123-2.396-7.86,0.727-10.582   c3.123-2.721,7.86-2.396,10.582,0.727c2.183,2.505,5.334,3.942,8.645,3.942c3.311,0,6.462-1.436,8.645-3.942   c2.721-3.124,7.458-3.45,10.582-0.727c3.122,2.721,3.448,7.458,0.727,10.582C270.921,340.582,263.648,343.894,256,343.894z"
       id="path33" /></g><g
     style="opacity:0.1;"
     id="g35"><path
       d="M284.215,398.878h-61.1c-4.142,0-7.5-3.358-7.5-7.5s3.358-7.5,7.5-7.5h61.1c4.142,0,7.5,3.358,7.5,7.5   S288.357,398.878,284.215,398.878z"
       id="path37" /><path
       d="M269.497,428.486h-31.664c-4.142,0-7.5-3.358-7.5-7.5s3.358-7.5,7.5-7.5h31.664c4.142,0,7.5,3.358,7.5,7.5   S273.639,428.486,269.497,428.486z"
       id="path39" /></g><g
     id="g43"
     style="fill:#cccccc"><path
       style="fill:#cccccc"
       d="M410.302,308.46L410.302,308.46c-2.421,5.012-9.559,5.012-11.98,0l0,0   c-6.227-12.891-16.632-23.296-29.523-29.523l0,0c-5.012-2.421-5.012-9.559,0-11.98l0,0c12.891-6.227,23.296-16.632,29.523-29.523   l0,0c2.421-5.012,9.559-5.012,11.98,0l0,0c6.227,12.891,16.632,23.296,29.523,29.523l0,0c5.012,2.421,5.012,9.559,0,11.98l0,0   C426.934,285.164,416.529,295.569,410.302,308.46z"
       id="path45" /><path
       style="fill:#cccccc"
       d="M98.961,326.386L98.961,326.386c-1.961,4.06-7.743,4.06-9.705,0l0,0   c-5.044-10.442-13.473-18.871-23.915-23.915l0,0c-4.06-1.961-4.06-7.743,0-9.704l0,0c10.442-5.044,18.871-13.473,23.915-23.915l0,0   c1.961-4.06,7.743-4.06,9.705,0l0,0c5.044,10.442,13.473,18.871,23.915,23.915l0,0c4.06,1.961,4.06,7.743,0,9.704l0,0   C112.434,307.516,104.005,315.944,98.961,326.386z"
       id="path47" /></g><path
     style="fill:#FFFFFF;"
     d="M198.772,475.14L198.772,475.14c-1.941,4.017-7.662,4.017-9.603,0l0,0  c-4.991-10.333-13.332-18.674-23.665-23.665l0,0c-4.017-1.941-4.017-7.663,0-9.603l0,0c10.333-4.991,18.674-13.332,23.665-23.665  l0,0c1.941-4.017,7.663-4.017,9.603,0l0,0c4.992,10.333,13.332,18.674,23.665,23.665l0,0c4.017,1.941,4.017,7.663,0,9.603l0,0  C212.104,456.466,203.763,464.806,198.772,475.14z"
     id="path49" /><g
     id="g51" /><g
     id="g53" /><g
     id="g55" /><g
     id="g57" /><g
     id="g59" /><g
     id="g61" /><g
     id="g63" /><g
     id="g65" /><g
     id="g67" /><g
     id="g69" /><g
     id="g71" /><g
     id="g73" /><g
     id="g75" /><g
     id="g77" /><g
     id="g79" /></svg>